%YAML 1.1
%TAG !u! tag:unity3d.com,2011:
--- !u!1045 &1
EditorBuildSettings:
  m_ObjectHideFlags: 0
  serializedVersion: 2
  m_Scenes:
  - enabled: 1
    path: Assets/Scenes/Menu.unity
    guid: df1b584a1801bb74a863186234b910bd
  - enabled: 1
    path: Assets/Scenes/Level.unity
    guid: 088e0f63b8f0d244d9525488ba953b86
  m_configObjects: {}
