%YAML 1.1
%TAG !u! tag:unity3d.com,2011:
--- !u!1 &8128185913576531748
GameObject:
  m_ObjectHideFlags: 0
  m_CorrespondingSourceObject: {fileID: 0}
  m_PrefabInstance: {fileID: 0}
  m_PrefabAsset: {fileID: 0}
  serializedVersion: 6
  m_Component:
  - component: {fileID: 8128185913576531746}
  - component: {fileID: 8128185913576531749}
  m_Layer: 0
  m_Name: Weapon 2
  m_TagString: Untagged
  m_Icon: {fileID: 0}
  m_NavMeshLayer: 0
  m_StaticEditorFlags: 0
  m_IsActive: 1
--- !u!4 &8128185913576531746
Transform:
  m_ObjectHideFlags: 0
  m_CorrespondingSourceObject: {fileID: 0}
  m_PrefabInstance: {fileID: 0}
  m_PrefabAsset: {fileID: 0}
  m_GameObject: {fileID: 8128185913576531748}
  m_LocalRotation: {x: 0, y: 0, z: 0, w: 1}
  m_LocalPosition: {x: -3.501267, y: 0.31951013, z: -3.5134048}
  m_LocalScale: {x: 1, y: 1, z: 1}
  m_Children: []
  m_Father: {fileID: 0}
  m_RootOrder: 0
  m_LocalEulerAnglesHint: {x: 0, y: 0, z: 0}
--- !u!114 &8128185913576531749
MonoBehaviour:
  m_ObjectHideFlags: 0
  m_CorrespondingSourceObject: {fileID: 0}
  m_PrefabInstance: {fileID: 0}
  m_PrefabAsset: {fileID: 0}
  m_GameObject: {fileID: 8128185913576531748}
  m_Enabled: 1
  m_EditorHideFlags: 0
  m_Script: {fileID: 11500000, guid: 20b1408b6b206624fbb7ed8a10f21d99, type: 3}
  m_Name: 
  m_EditorClassIdentifier: 
  type: 0
  weaponName: Weapon2
  force: 1000
  damage: 80
  destroyAfterDistence: 3
  attackSpeed: 1
  infinity: 0
  bulletAmount: 30
  addBulletAmountEachTime: 30
  bulletSize: 0.3
  explosion: 0
  destroyByTime: 0
  explosionAfterTime: 0
  radius: 0
  explosionForce: 0
